<svg xmlns="http://www.w3.org/2000/svg" width="22.15" height="22.15" viewBox="0 0 22.15 22.15">
  <g id="calendar_2_" data-name="calendar (2)" transform="translate(-4.495 -4.495)">
    <path id="Path_4456" data-name="Path 4456" d="M26.257,6.323H22.1V4.881a.324.324,0,0,0-.324-.324H20.4a.324.324,0,0,0-.324.324V6.323H16.585V4.881a.324.324,0,0,0-.324-.324H14.878a.324.324,0,0,0-.324.324V6.323H11.068V4.881a.324.324,0,0,0-.324-.324H9.361a.324.324,0,0,0-.324.324V6.323H4.881a.324.324,0,0,0-.324.324V26.257a.324.324,0,0,0,.324.324H26.257a.324.324,0,0,0,.324-.324V6.647a.324.324,0,0,0-.324-.324ZM20.72,5.205h.734V8.088H20.72Zm-5.518,0h.734V8.088H15.2Zm-5.518,0h.735V8.088H9.685ZM5.205,6.971H9.036V8.413a.324.324,0,0,0,.324.324h1.382a.324.324,0,0,0,.324-.324V6.971h3.487V8.413a.324.324,0,0,0,.324.324h1.382a.324.324,0,0,0,.324-.324V6.971h3.486V8.413a.324.324,0,0,0,.324.324h1.382a.324.324,0,0,0,.324-.324V6.971h3.831v3.71H5.205Zm0,18.962v-14.6H25.933v14.6Z" transform="translate(0 0)" stroke="#000" stroke-width="0.125"/>
  </g>
</svg>
