<svg xmlns="http://www.w3.org/2000/svg" width="88.861" height="48" viewBox="0 0 88.861 48">
  <g id="Group_2620" data-name="Group 2620" transform="translate(-177 -2657)">
    <g id="Group_2590" data-name="Group 2590" transform="translate(177 2657)">
      <path id="Path_4487" data-name="Path 4487" d="M18.29,147.5h2.726a10.741,10.741,0,0,0,21.165,0H63.139a10.741,10.741,0,0,0,21.165,0h9.95a3.638,3.638,0,0,0,3.635-3.635v-10a9.274,9.274,0,0,0-9.263-9.263H77.573c-6.818-6.511-10.034-15.055-20-15.055H35.245a14.764,14.764,0,0,0-12.473,6.813l-5.29,8.242h-6.6a1.852,1.852,0,0,0-1.853,1.853v11.782A9.274,9.274,0,0,0,18.29,147.5ZM31.6,152.7a7.055,7.055,0,0,1-7.047-7.023c0-.009,0-.015,0-.024s0-.015,0-.024A7.047,7.047,0,1,1,31.6,152.7Zm42.121,0a7.047,7.047,0,1,1,7.047-7.059s0,.008,0,.012,0,.008,0,.012A7.055,7.055,0,0,1,73.72,152.7Zm-1.1-28.092H49.062V113.257h8.507C65.048,113.257,67.5,119.71,72.622,124.607Zm-46.731-6.239a11.071,11.071,0,0,1,9.354-5.11H45.357v11.349H21.883Zm-13.159,9.945H88.625a5.564,5.564,0,0,1,5.558,5.558l.071,9.929H84.3a10.741,10.741,0,0,0-21.165,0H42.181a10.741,10.741,0,0,0-21.165,0H18.29a5.564,5.564,0,0,1-5.558-5.558Z" transform="translate(-9.027 -109.552)" fill="#76777a"/>
    </g>
    <g id="Ellipse_10" data-name="Ellipse 10" transform="translate(188 2682)" fill="#fff" stroke="#df1582" stroke-width="3">
      <circle cx="11.5" cy="11.5" r="11.5" stroke="none"/>
      <circle cx="11.5" cy="11.5" r="10" fill="none"/>
    </g>
    <g id="Ellipse_12" data-name="Ellipse 12" transform="translate(230 2682)" fill="#fff" stroke="#df1582" stroke-width="3">
      <circle cx="11.5" cy="11.5" r="11.5" stroke="none"/>
      <circle cx="11.5" cy="11.5" r="10" fill="none"/>
    </g>
  </g>
</svg>
