<svg id="Group_2590" data-name="Group 2590" xmlns="http://www.w3.org/2000/svg" width="24.347" height="12.837" viewBox="0 0 24.347 12.837">
  <path id="Path_4487" data-name="Path 4487" d="M11.565,119.95h.747a2.943,2.943,0,0,0,5.8,0h5.742a2.943,2.943,0,0,0,5.8,0h2.726a1,1,0,0,0,1-1v-2.74a2.541,2.541,0,0,0-2.538-2.538H27.808c-1.868-1.784-2.749-4.125-5.481-4.125H16.21a4.045,4.045,0,0,0-3.417,1.867l-1.449,2.258H9.534a.507.507,0,0,0-.508.508v3.228A2.541,2.541,0,0,0,11.565,119.95Zm3.646,1.423a1.933,1.933,0,0,1-1.931-1.924s0,0,0-.007,0,0,0-.007a1.931,1.931,0,1,1,1.931,1.937Zm11.541,0a1.931,1.931,0,1,1,1.931-1.934s0,0,0,0,0,0,0,0A1.933,1.933,0,0,1,26.752,121.373Zm-.3-7.7H20v-3.11h2.331C24.376,110.567,25.048,112.335,26.451,113.677Zm-12.8-1.709a3.033,3.033,0,0,1,2.563-1.4h2.771v3.11H12.549Zm-3.605,2.725H30.836a1.524,1.524,0,0,1,1.523,1.523l.019,2.72H29.652a2.943,2.943,0,0,0-5.8,0H18.11a2.943,2.943,0,0,0-5.8,0h-.747a1.524,1.524,0,0,1-1.523-1.523Z" transform="translate(-9.027 -109.552)" fill="#fff"/>
</svg>
