<svg xmlns="http://www.w3.org/2000/svg" width="67.919" height="61.325" viewBox="0 0 67.919 61.325">
  <g id="certificate" transform="translate(-656 -849.3)">
    <rect id="Rectangle_1427" data-name="Rectangle 1427" width="5.784" height="2.239" transform="translate(690.959 886.455)" fill="#21b592"/>
    <rect id="Rectangle_1428" data-name="Rectangle 1428" width="3.086" height="2.239" transform="translate(698.817 886.455)" fill="#21b592"/>
    <path id="Path_4480" data-name="Path 4480" d="M60.736.3H16.823a6.919,6.919,0,0,0-6.9,6.855L9.64,45.773H1.088A1.135,1.135,0,0,0,0,46.942v5.32a9.4,9.4,0,0,0,8.792,9.3v.065H45.5l.259-.072h.013a2.383,2.383,0,0,1,.343.039,1.866,1.866,0,0,0,.278.033h.039a9.344,9.344,0,0,0,9.259-9.364V18.482H66.837a1.143,1.143,0,0,0,1.081-1.18V7.547A7.273,7.273,0,0,0,60.736.3m-.03,1.949.029.3a5.017,5.017,0,0,1,4.936,5.018v8.671H55.693V7.578A5.063,5.063,0,0,1,60.71,2.549ZM39.82,58.865a2.673,2.673,0,0,0,.209.182,1.859,1.859,0,0,1,.334.329H9.3a7.1,7.1,0,0,1-7.044-7.115V48.024H37.094v4.22a9.333,9.333,0,0,0,2.726,6.621m-1.6-13.09H11.884l.283-38.608a4.668,4.668,0,0,1,4.655-4.618H55.485a7.473,7.473,0,0,0-2.046,5.028V52.261a7.048,7.048,0,1,1-14.1-.019v-5.3a1.155,1.155,0,0,0-1.124-1.17" transform="translate(656 849)" fill="#00635b"/>
    <path id="Path_4481" data-name="Path 4481" d="M25.82,27.4l5.665,3.874a1.1,1.1,0,0,0,.628.2h0a1.1,1.1,0,0,0,.627-.195l5.66-3.881a8.523,8.523,0,0,0,3.412-6.525V13.031a1.106,1.106,0,0,0-.6-1.011L32.589,7.777a1.1,1.1,0,0,0-.984,0l-8.612,4.232a1.1,1.1,0,0,0-.6,1.009v7.862A8.525,8.525,0,0,0,25.82,27.4m-1.178-6.531V13.72L32.1,10.037l7.462,3.693v7.126a6.229,6.229,0,0,1-2.444,4.686l-5.029,3.441-5-3.431a6.238,6.238,0,0,1-2.45-4.684" transform="translate(656 849)" fill="#00635b"/>
    <path id="Path_4482" data-name="Path 4482" d="M30.228,22.545a1.139,1.139,0,0,0,.8.336h0a1.125,1.125,0,0,0,.8-.333L36.2,18.17A1.125,1.125,0,0,0,34.6,16.583l-3.574,3.573L29.587,18.7a1.125,1.125,0,0,0-1.573,1.609Z" transform="translate(656 849)" fill="#00635b"/>
    <rect id="Rectangle_1429" data-name="Rectangle 1429" width="13.823" height="2.239" transform="translate(675.273 886.455)" fill="#00635b"/>
  </g>
</svg>
