<?xml version="1.0" encoding="utf-8"?>
<!-- Generator: Adobe Illustrator 21.0.0, SVG Export Plug-In . SVG Version: 6.00 Build 0)  -->
<svg version="1.1" id="Layer_1" xmlns="http://www.w3.org/2000/svg" xmlns:xlink="http://www.w3.org/1999/xlink" x="0px" y="0px"
	 viewBox="0 0 21.3 11.1" style="enable-background:new 0 0 21.3 11.1;" xml:space="preserve">
<style type="text/css">
	.st0{fill:#737475;}
</style>
<path id="down-arrow.svg" class="st0" d="M10.6,11l0.9-0.7L21.3,2l-1.7-2l-8.9,7.6L1.7,0L0,2l9.8,8.3L10.6,11L10.6,11L10.6,11z"/>
</svg>
