<svg xmlns="http://www.w3.org/2000/svg" xmlns:xlink="http://www.w3.org/1999/xlink" width="34.37" height="40" viewBox="0 0 34.37 40">
  <defs>
    <clipPath id="clip-path">
      <rect id="Rectangle_1457" data-name="Rectangle 1457" width="34.37" height="40" fill="none"/>
    </clipPath>
  </defs>
  <g id="fast-food" transform="translate(0 0)">
    <g id="Group_2651" data-name="Group 2651" transform="translate(0 0)" clip-path="url(#clip-path)">
      <path id="Path_4512" data-name="Path 4512" d="M35.353,22.881a4.633,4.633,0,0,1,.256-9.259c.09,0,.18,0,.268.008a4.638,4.638,0,0,1,4.363,4.887.777.777,0,0,1-.776.734.79.79,0,0,1-.778-.8v-.022a3.079,3.079,0,0,0-2.9-3.245l-.176,0a3.076,3.076,0,0,0-.17,6.147h.174a3.084,3.084,0,0,0,2.271-1,.778.778,0,1,1,1.149,1.05,4.644,4.644,0,0,1-3.417,1.509c-.086,0-.175,0-.263,0" transform="translate(-9.643 -4.239)" fill="#00635b"/>
      <path id="Path_4513" data-name="Path 4513" d="M31.95,37.717c.075,0,.223.007.223.007a3.89,3.89,0,0,0,.215-7.775c-.073,0-.148-.006-.222-.006a3.89,3.89,0,0,0-.216,7.774m-1.335-5.624a2.327,2.327,0,0,1,1.551-.593H32.3a2.333,2.333,0,0,1-.13,4.663h-.134a2.333,2.333,0,0,1-1.422-4.07Z" transform="translate(-8.803 -9.317)" fill="#00635b"/>
      <path id="Path_4514" data-name="Path 4514" d="M16.412,32.909h.183a3.22,3.22,0,0,0,2.189-.866,3.42,3.42,0,0,0,.267-4.72,3.2,3.2,0,0,0-2.26-1.123H16.61a3.36,3.36,0,0,0-.2,6.709Zm.2-5.152H16.7a1.662,1.662,0,0,1,1.17.584A1.867,1.867,0,0,1,17.73,30.9a1.718,1.718,0,0,1-1.216.449H16.5a1.8,1.8,0,0,1,.11-3.6Z" transform="translate(-4.146 -8.153)" fill="#00635b"/>
      <path id="Path_4515" data-name="Path 4515" d="M43.007,43.861a2.635,2.635,0,0,0-.632-1.877,2.507,2.507,0,0,0-1.769-.878h-.143a2.514,2.514,0,0,0-1.711.676,2.624,2.624,0,0,0-.84,1.8,2.584,2.584,0,0,0,2.4,2.755h.143a2.515,2.515,0,0,0,1.712-.676,2.631,2.631,0,0,0,.839-1.8m-1.9.652a.992.992,0,0,1-.7.261H40.4a.962.962,0,0,1-.683-.346,1.1,1.1,0,0,1,.092-1.507.963.963,0,0,1,.656-.262v-.2l.054.2A.962.962,0,0,1,41.2,43a1.106,1.106,0,0,1-.085,1.515Z" transform="translate(-11.795 -12.791)" fill="#00635b"/>
      <path id="Path_4516" data-name="Path 4516" d="M26,29.281a.737.737,0,1,0-.737-.737.737.737,0,0,0,.737.737" transform="translate(-7.861 -8.653)" fill="#00635b"/>
      <path id="Path_4517" data-name="Path 4517" d="M33.765,44.609a.736.736,0,1,0,.737.737.736.736,0,0,0-.737-.737" transform="translate(-10.278 -13.881)" fill="#00635b"/>
      <path id="Path_4518" data-name="Path 4518" d="M26,19.531a.736.736,0,1,0-.737-.737.736.736,0,0,0,.737.737" transform="translate(-7.861 -5.619)" fill="#00635b"/>
      <path id="Path_4519" data-name="Path 4519" d="M42.843,30.7a.736.736,0,1,0-.736-.736.736.736,0,0,0,.736.736" transform="translate(-13.102 -9.095)" fill="#00635b"/>
      <path id="Path_4520" data-name="Path 4520" d="M44.408,14.375a.737.737,0,1,0-.737-.737h0a.737.737,0,0,0,.737.736" transform="translate(-13.589 -4.014)" fill="#00635b"/>
      <path id="Path_4521" data-name="Path 4521" d="M42.062,39.6a.737.737,0,1,0-.737-.737.737.737,0,0,0,.737.737" transform="translate(-12.859 -11.864)" fill="#00635b"/>
      <path id="Path_4522" data-name="Path 4522" d="M44.408,51a.736.736,0,1,0,.736.737A.736.736,0,0,0,44.408,51" transform="translate(-13.589 -15.871)" fill="#00635b"/>
      <path id="Path_4523" data-name="Path 4523" d="M21.095,38.085a.737.737,0,1,0,.737-.737h0a.737.737,0,0,0-.736.737" transform="translate(-6.564 -11.621)" fill="#00635b"/>
      <rect id="Rectangle_1455" data-name="Rectangle 1455" width="1.653" height="4.122" transform="translate(32.718 26.051)" fill="#21b592"/>
      <rect id="Rectangle_1456" data-name="Rectangle 1456" width="1.652" height="2.264" transform="translate(32.718 31.464)" fill="#21b592"/>
      <path id="Path_4524" data-name="Path 4524" d="M32.756,34.891l0,2.578a.977.977,0,0,1-1.464.845l-25.51-14.8c.2-.62.427-1.23.668-1.817a.782.782,0,0,0-.425-1.016.8.8,0,0,0-.3-.058.777.777,0,0,0-.72.483c-.217.53-.42,1.07-.6,1.61l-2.052-1.19a1.588,1.588,0,0,1-.741-1.762,24.427,24.427,0,0,1,10.732-14.8A23.172,23.172,0,0,1,23.611,1.578c.355-.015.7-.021,1.046-.021a26.762,26.762,0,0,1,7,.94,1.585,1.585,0,0,1,1.158,1.531c0,.415-.009.98-.018,1.528l-.009.617a32.334,32.334,0,0,0-5.615-.53q-.791,0-1.616.05A22.21,22.21,0,0,0,15.25,8.9a24.929,24.929,0,0,0-9,9.564.778.778,0,1,0,1.369.739,23.392,23.392,0,0,1,8.44-8.977,20.663,20.663,0,0,1,9.591-2.983c.515-.032,1.021-.048,1.515-.048a31.5,31.5,0,0,1,5.64.559L32.78,24.35h1.555l.037-20.325a3.142,3.142,0,0,0-1.93-2.9A3.238,3.238,0,0,0,32.07,1c-.428-.117-.912-.238-1.446-.354A28.228,28.228,0,0,0,24.661,0q-.546,0-1.111.023A24.728,24.728,0,0,0,12.213,3.234c-.231.13-.459.265-.687.4A25.973,25.973,0,0,0,.1,19.375c-.021.085-.039.169-.054.253a3.141,3.141,0,0,0,1.52,3.246L30.5,39.658a2.537,2.537,0,0,0,3.8-2.191l.006-2.576Z" transform="translate(0 0)" fill="#00635b"/>
    </g>
  </g>
</svg>
