<svg xmlns="http://www.w3.org/2000/svg" xmlns:xlink="http://www.w3.org/1999/xlink" width="70.947" height="27.019" viewBox="0 0 70.947 27.019">
  <defs>
    <clipPath id="clip-path">
      <rect id="Rectangle_1465" data-name="Rectangle 1465" width="70.947" height="27.019" fill="none"/>
    </clipPath>
  </defs>
  <g id="gym" transform="translate(0 0)">
    <rect id="Rectangle_1461" data-name="Rectangle 1461" width="1.834" height="5.695" transform="translate(0 10.662)" fill="#00635b"/>
    <rect id="Rectangle_1462" data-name="Rectangle 1462" width="1.834" height="5.695" transform="translate(69.112 10.662)" fill="#00635b"/>
    <rect id="Rectangle_1463" data-name="Rectangle 1463" width="3.883" height="1.901" transform="translate(33.392 17.034)" fill="#21b592"/>
    <rect id="Rectangle_1464" data-name="Rectangle 1464" width="2.072" height="1.901" transform="translate(29.373 17.034)" fill="#21b592"/>
    <g id="Group_2657" data-name="Group 2657" transform="translate(0 0)">
      <g id="Group_2656" data-name="Group 2656" clip-path="url(#clip-path)">
        <path id="Path_4527" data-name="Path 4527" d="M65.678,4.2H60.264V.942A.943.943,0,0,0,59.321,0H49.749a.939.939,0,0,0-.819.944V8.078l-23.7-.026a.945.945,0,0,0-.944.943V25.132H16.722V1.884H24.2l.078,2.552h1.9V.942A.944.944,0,0,0,25.23,0H15.658a.94.94,0,0,0-.819.944V20.913H10.145V5.172a.883.883,0,0,0-.025-.138H8.288a.939.939,0,0,0-.027.153V21.856A.945.945,0,0,0,9.2,22.8h5.634v3.276a.944.944,0,0,0,.943.943H25.23a.944.944,0,0,0,.943-.943V9.937l22.756.028v7.09H41.25v1.89h7.681v7.131a.943.943,0,0,0,.941.943H59.32a.944.944,0,0,0,.943-.943V6.087h4.473v15.74c0,.015.007.028.008.043h1.863c0-.022.012-.041.012-.064V5.14a.943.943,0,0,0-.941-.943m-7.3,20.938H50.813V1.884H58.38Z" transform="translate(-2.079 0)" fill="#00635b"/>
      </g>
    </g>
  </g>
</svg>
