<svg xmlns="http://www.w3.org/2000/svg" width="59.236" height="60.863" viewBox="0 0 59.236 60.863">
  <g id="Group_1816" data-name="Group 1816" transform="translate(0.276 0.5)">
    <g id="Group_1695" data-name="Group 1695" transform="translate(0 0)">
      <path id="Path_3824" data-name="Path 3824" d="M49.689,12.544a.7.7,0,0,0,.708-.689V7.687a.7.7,0,0,0-.671-.725.637.637,0,0,0-.115,0,.7.7,0,0,0-.611.72v4.148A.7.7,0,0,0,49.689,12.544Z" transform="translate(-20.344 -6.961)" fill="#df1683" stroke="#df1683" stroke-width="1"/>
      <path id="Path_3825" data-name="Path 3825" d="M30.8,32.564a.707.707,0,0,0,.884-.469,12.968,12.968,0,0,1,24.757,0,.708.708,0,1,0,1.353-.415,14.391,14.391,0,0,0-27.464,0A.708.708,0,0,0,30.8,32.564Z" transform="translate(-14.707 -11.371)" fill="#df1683" stroke="#df1683" stroke-width="1"/>
      <path id="Path_3826" data-name="Path 3826" d="M71.98,20.917,74.4,18.45a.7.7,0,1,0-1-.982l-2.423,2.467a.7.7,0,1,0,1,.982Z" transform="translate(-26.907 -10.061)" fill="#df1683" stroke="#df1683" stroke-width="1"/>
      <path id="Path_3827" data-name="Path 3827" d="M26.362,20.917a.7.7,0,1,0,1-.982l-2.423-2.467a.7.7,0,0,0-.5-.219h-.066a.7.7,0,0,0-.437,1.2Z" transform="translate(-12.726 -10.062)" fill="#df1683" stroke="#df1683" stroke-width="1"/>
      <path id="Path_3828" data-name="Path 3828" d="M66.656,65.347,60.019,44.323a.7.7,0,0,0-.677-.48H15.351a.5.5,0,0,0-.065,0,.7.7,0,0,0-.611.48L8.016,65.347a.7.7,0,0,0,.677.917H65.979a.7.7,0,0,0,.677-.917Zm-57-.48,4.213-13.339H53.338a.7.7,0,0,0,.02-1.4H14.3l1.55-4.89H58.84l3.69,11.7H19.762a.514.514,0,0,0-.066,0,.7.7,0,0,0,.066,1.4h43.2l2.052,6.528Z" transform="translate(-7.981 -18.077)" fill="#76777a" stroke="#707070" stroke-width="0.5"/>
      <path id="Path_3829" data-name="Path 3829" d="M54.9,88.287h-8.49V82.72A.7.7,0,0,0,45.73,82h-.022a.7.7,0,0,0-.7.7v5.589H36.539a.7.7,0,1,0,0,1.4H54.877a.7.7,0,1,0,.02-1.4Z" transform="translate(-16.353 -29.577)" fill="#76777a" stroke="#707070" stroke-width="0.5"/>
    </g>
  </g>
</svg>
