<svg xmlns="http://www.w3.org/2000/svg" width="39.764" height="53" viewBox="0 0 39.764 53">
  <g id="Group_1817" data-name="Group 1817" transform="translate(-21.06 -27.4)">
    <path id="Path_4018" data-name="Path 4018" d="M40.942,79.9A19.4,19.4,0,0,1,21.56,60.518c0-14.9,17.088-30.716,19.037-32.471a.507.507,0,0,1,.345-.147.47.47,0,0,1,.312.118c1.982,1.783,19.07,17.6,19.07,32.5A19.4,19.4,0,0,1,40.942,79.9Zm-.323-50.588c-3.025,2.831-18.113,17.638-18.113,31.206a18.437,18.437,0,1,0,36.873,0c0-13.566-15.089-28.375-18.113-31.206l-.323-.3Z" fill="#76777a" stroke="#76777a" stroke-width="1"/>
    <path id="Path_4019" data-name="Path 4019" d="M41.324,76.136A12.778,12.778,0,0,1,28.56,63.372a.473.473,0,0,1,.945,0A11.832,11.832,0,0,0,41.324,75.19a.473.473,0,0,1,0,.945Z" transform="translate(-0.382 -1.908)" fill="none" stroke="#df1683" stroke-width="1"/>
  </g>
</svg>
