<svg xmlns="http://www.w3.org/2000/svg" xmlns:xlink="http://www.w3.org/1999/xlink" width="184.682" height="60.412" viewBox="0 0 184.682 60.412">
  <defs>
    <clipPath id="clip-path">
      <rect id="Rectangle_1512" data-name="Rectangle 1512" width="184.682" height="60.412" fill="none"/>
    </clipPath>
    <clipPath id="clip-path-2">
      <path id="Path_4550" data-name="Path 4550" d="M38.365,35.155V72.941a.833.833,0,0,0,.512.865L58.994,53.858,39.045,34.077a1,1,0,0,0-.68,1.078" transform="translate(-38.365 -34.077)" fill="none"/>
    </clipPath>
    <linearGradient id="linear-gradient" x1="-0.672" y1="1.211" x2="-0.654" y2="1.211" gradientUnits="objectBoundingBox">
      <stop offset="0" stop-color="#006aa1"/>
      <stop offset="0.364" stop-color="#328fa6"/>
      <stop offset="0.791" stop-color="#67b6ac"/>
      <stop offset="1" stop-color="#7cc6af"/>
    </linearGradient>
    <clipPath id="clip-path-3">
      <path id="Path_4551" data-name="Path 4551" d="M40.248,34.01,60.2,53.791,65.738,48.3,57.411,43.49l-.1-.055,0,0-.013-.008h0l-.008,0-.006,0-.007,0h0l-.009-.005h0l-.009-.005h0L41.319,34.2a1.641,1.641,0,0,0-.786-.226,1.052,1.052,0,0,0-.286.038" transform="translate(-40.248 -33.972)" fill="none"/>
    </clipPath>
    <linearGradient id="linear-gradient-2" x1="-0.57" y1="2.429" x2="-0.556" y2="2.429" gradientUnits="objectBoundingBox">
      <stop offset="0" stop-color="#4ab59d"/>
      <stop offset="1" stop-color="#dfe385"/>
    </linearGradient>
    <clipPath id="clip-path-4">
      <path id="Path_4552" data-name="Path 4552" d="M39.782,108.81a1.1,1.1,0,0,0,.874-.144l2.839-1.639,13.454-7.768.027-.016.016-.009h0l.016-.009h0l.02-.012.013-.007h0l.056-.033h0l.011-.007,8.327-4.807L59.9,88.862Z" transform="translate(-39.782 -88.862)" fill="none"/>
    </clipPath>
    <linearGradient id="linear-gradient-3" x1="-0.56" y1="1.415" x2="-0.546" y2="1.415" gradientUnits="objectBoundingBox">
      <stop offset="0" stop-color="#e4282d"/>
      <stop offset="0.316" stop-color="#ba2d4e"/>
      <stop offset="0.777" stop-color="#83357b"/>
      <stop offset="1" stop-color="#6e388d"/>
    </linearGradient>
    <clipPath id="clip-path-5">
      <path id="Path_4553" data-name="Path 4553" d="M95.5,79.14l5.541,5.494h0l.058-.034.005,0h0l.017-.01.015-.008,0,0,.02-.011.011-.007.02-.012,0,0,.017-.01.032-.018.013-.007.006,0,0,0,5.833-3.367.046-.027.022-.013,1.888-1.09c.889-.521.837-1.224.131-1.655l-.076-.044L109.1,78.3c-.793-.427-8.061-4.654-8.061-4.654Z" transform="translate(-95.498 -73.646)" fill="none"/>
    </clipPath>
    <linearGradient id="linear-gradient-4" x1="-2.387" y1="3.077" x2="-2.362" y2="3.077" gradientUnits="objectBoundingBox">
      <stop offset="0" stop-color="#f07165"/>
      <stop offset="0.659" stop-color="#faa460"/>
      <stop offset="1" stop-color="#ffba5e"/>
    </linearGradient>
  </defs>
  <g id="play-store" transform="translate(0)">
    <g id="Group_2689" data-name="Group 2689" transform="translate(0)">
      <g id="Group_2688" data-name="Group 2688" clip-path="url(#clip-path)">
        <path id="Path_4549" data-name="Path 4549" d="M184.682,52.247a8.164,8.164,0,0,1-8.162,8.165H8.164A8.165,8.165,0,0,1,0,52.247V8.164A8.165,8.165,0,0,1,8.164,0H176.52a8.164,8.164,0,0,1,8.162,8.164Z" fill="#1a1818"/>
      </g>
    </g>
    <g id="Group_2691" data-name="Group 2691" transform="translate(13.852 12.304)">
      <g id="Group_2690" data-name="Group 2690" clip-path="url(#clip-path-2)">
        <rect id="Rectangle_1513" data-name="Rectangle 1513" width="20.629" height="39.729" transform="translate(0 0)" fill="url(#linear-gradient)"/>
      </g>
    </g>
    <g id="Group_2693" data-name="Group 2693" transform="translate(14.532 12.266)">
      <g id="Group_2692" data-name="Group 2692" clip-path="url(#clip-path-3)">
        <rect id="Rectangle_1514" data-name="Rectangle 1514" width="25.49" height="19.819" fill="url(#linear-gradient-2)"/>
      </g>
    </g>
    <g id="Group_2695" data-name="Group 2695" transform="translate(14.364 32.086)">
      <g id="Group_2694" data-name="Group 2694" clip-path="url(#clip-path-4)">
        <rect id="Rectangle_1515" data-name="Rectangle 1515" width="25.658" height="20.028" transform="translate(0 0)" fill="url(#linear-gradient-3)"/>
      </g>
    </g>
    <g id="Group_2697" data-name="Group 2697" transform="translate(34.482 26.592)">
      <g id="Group_2696" data-name="Group 2696" clip-path="url(#clip-path-5)">
        <rect id="Rectangle_1516" data-name="Rectangle 1516" width="14.448" height="10.988" transform="translate(0)" fill="url(#linear-gradient-4)"/>
      </g>
    </g>
    <g id="Group_2699" data-name="Group 2699" transform="translate(0)">
      <g id="Group_2698" data-name="Group 2698" clip-path="url(#clip-path)">
        <path id="Path_4554" data-name="Path 4554" d="M388.263,89.189a5.142,5.142,0,0,1-2.122-.429,3.992,3.992,0,0,1-1.613-1.319h-.13a15.988,15.988,0,0,1,.13,1.975v4.9h-1.8V77.074h1.465l.25,1.628h.087a4.188,4.188,0,0,1,1.618-1.411,4.917,4.917,0,0,1,2.117-.434,4.4,4.4,0,0,1,3.653,1.618,7.122,7.122,0,0,1,1.286,4.538,7.087,7.087,0,0,1-1.307,4.555,4.408,4.408,0,0,1-3.632,1.622M388,78.388a3.194,3.194,0,0,0-2.638,1.01,5.2,5.2,0,0,0-.836,3.214v.4a5.953,5.953,0,0,0,.836,3.588,3.18,3.18,0,0,0,2.681,1.08,2.789,2.789,0,0,0,2.416-1.248,5.92,5.92,0,0,0,.874-3.442,5.7,5.7,0,0,0-.874-3.414A2.876,2.876,0,0,0,388,78.388" transform="translate(-244.534 -49.106)" fill="#f5f5f6"/>
        <rect id="Rectangle_1517" data-name="Rectangle 1517" width="1.802" height="16.891" transform="translate(151.039 22.975)" fill="#f5f5f6"/>
        <path id="Path_4555" data-name="Path 4555" d="M437.463,89.01l-.359-1.694h-.087a4.987,4.987,0,0,1-1.775,1.514,5.394,5.394,0,0,1-2.209.4,3.976,3.976,0,0,1-2.774-.912,3.325,3.325,0,0,1-1-2.594q0-3.6,5.764-3.778l2.02-.065V81.14a3.013,3.013,0,0,0-.6-2.068,2.477,2.477,0,0,0-1.927-.668,7.847,7.847,0,0,0-3.366.912l-.554-1.379a8.473,8.473,0,0,1,1.927-.749,8.343,8.343,0,0,1,2.1-.272,4.532,4.532,0,0,1,3.154.945A3.945,3.945,0,0,1,438.8,80.89v8.12Zm-4.07-1.27a3.66,3.66,0,0,0,2.643-.923A3.415,3.415,0,0,0,437,84.233V83.159l-1.8.075a6.556,6.556,0,0,0-3.1.669,2.013,2.013,0,0,0-.95,1.84,1.854,1.854,0,0,0,.592,1.487,2.454,2.454,0,0,0,1.656.511" transform="translate(-274.263 -49.144)" fill="#f5f5f6"/>
        <path id="Path_4556" data-name="Path 4556" d="M458.581,77.459h1.932l2.605,6.785a25.943,25.943,0,0,1,1.065,3.355h.087q.141-.555.591-1.9t2.947-8.244h1.933l-5.114,13.548a6.758,6.758,0,0,1-1.775,2.85,3.775,3.775,0,0,1-2.49.84,7.27,7.27,0,0,1-1.629-.184V93.07a6.269,6.269,0,0,0,1.336.131,2.753,2.753,0,0,0,2.649-2.085l.662-1.693Z" transform="translate(-292.999 -49.491)" fill="#f5f5f6"/>
        <path id="Path_4557" data-name="Path 4557" d="M289.184,78.935a4.2,4.2,0,0,1,1.766,3.36c0,1.84-1.045,2.713-2.091,3.533a1.751,1.751,0,0,0-.7,1.221,1.366,1.366,0,0,0,.648,1.069l.9.7c1.095.921,2.089,1.767,2.089,3.485,0,2.339-2.265,4.7-6.544,4.7-3.609,0-5.35-1.717-5.35-3.559a3.58,3.58,0,0,1,1.916-3.036,10.729,10.729,0,0,1,4.753-1.145,2.6,2.6,0,0,1-.747-1.691,2.249,2.249,0,0,1,.249-.972c-.274.025-.548.05-.8.05a3.934,3.934,0,0,1-4.13-3.906,4.476,4.476,0,0,1,1.592-3.335,6.784,6.784,0,0,1,4.456-1.369h5.125l-1.593.9Zm-1.767,11.05a3.81,3.81,0,0,0-.572-.026,9.944,9.944,0,0,0-2.613.4,2.8,2.8,0,0,0-2.14,2.563c0,1.766,1.718,3.037,4.381,3.037,2.387,0,3.658-1.147,3.658-2.689,0-1.271-.822-1.941-2.713-3.285m.722-4.729a2.517,2.517,0,0,0,.621-1.817c0-1.791-1.07-4.578-3.134-4.578a2.323,2.323,0,0,0-1.742.822,2.874,2.874,0,0,0-.548,1.841c0,1.667.971,4.43,3.112,4.43a2.547,2.547,0,0,0,1.692-.7" transform="translate(-178.837 -49.861)" fill="#f5f5f6"/>
        <path id="Path_4558" data-name="Path 4558" d="M251.494,88.961a5.863,5.863,0,0,1-6.062-5.864,6.156,6.156,0,0,1,6.436-6.036,5.808,5.808,0,0,1,5.936,5.863,6.071,6.071,0,0,1-6.311,6.038m3.105-2.012a4.5,4.5,0,0,0,.746-2.759c0-2.187-1.043-6.36-4.124-6.36a3.462,3.462,0,0,0-2.236.846,3.759,3.759,0,0,0-1.144,3.032c0,2.458,1.218,6.507,4.225,6.507a3.174,3.174,0,0,0,2.533-1.265" transform="translate(-156.813 -49.236)" fill="#f5f5f6"/>
        <path id="Path_4559" data-name="Path 4559" d="M214.2,88.961a5.863,5.863,0,0,1-6.062-5.864,6.157,6.157,0,0,1,6.436-6.036,5.808,5.808,0,0,1,5.937,5.863,6.071,6.071,0,0,1-6.311,6.038m3.106-2.012a4.5,4.5,0,0,0,.746-2.759c0-2.187-1.044-6.36-4.125-6.36a3.462,3.462,0,0,0-2.236.846,3.758,3.758,0,0,0-1.143,3.032c0,2.458,1.217,6.507,4.224,6.507a3.177,3.177,0,0,0,2.534-1.265" transform="translate(-132.983 -49.236)" fill="#f5f5f6"/>
        <path id="Path_4560" data-name="Path 4560" d="M172.425,78.62l-3.572.824a26.483,26.483,0,0,1-4.121.424c-6.895,0-9.516-5.071-9.516-9.043,0-4.845,3.721-9.34,10.092-9.34a14.393,14.393,0,0,1,3.821.524,9.747,9.747,0,0,1,3.3,1.549l-2.074,1.973-.873.2.624-1a7.14,7.14,0,0,0-5.345-2.347c-3.947,0-6.92,3-6.92,7.37a8.834,8.834,0,0,0,8.842,9.116,7.438,7.438,0,0,0,3.173-.625V74.224l-3.771.2,2-1.075h5.3l-.649.624a.583.583,0,0,0-.25.4c-.026.225-.049.95-.049,1.2Z" transform="translate(-99.171 -39.284)" fill="#f5f5f6"/>
        <path id="Path_4561" data-name="Path 4561" d="M318.086,76.916c-.825-.075-1-.224-1-1.2V61.579c.005-.054.009-.109.013-.161.1-.874.35-1.024,1.126-1.474h-3.574l-1.874.9h1.91V76.267c0,.5-.1.574-.674,1.323h4.422l.924-.548c-.424-.052-.849-.076-1.275-.126" transform="translate(-199.843 -38.3)" fill="#f5f5f6"/>
        <path id="Path_4562" data-name="Path 4562" d="M339.6,88.1c-.272.149-.545.324-.817.447a5.781,5.781,0,0,1-2.409.471,5.3,5.3,0,0,1-3.3-.968,6.421,6.421,0,0,1-2.529-5.234,5.622,5.622,0,0,1,5.68-5.73,4.823,4.823,0,0,1,2.556.695,4.107,4.107,0,0,1,1.734,2.455l-5.828,2.358-1.91.149c.619,3.15,2.753,4.984,5.11,4.984a6.41,6.41,0,0,0,3.026-.867ZM337.272,80.7c.47-.173.719-.322.719-.669a2.461,2.461,0,0,0-2.456-2.133c-.994,0-2.853.769-2.853,3.448,0,.422.05.868.075,1.316Z" transform="translate(-211.196 -49.25)" fill="#f5f5f6"/>
        <path id="Path_4563" data-name="Path 4563" d="M360.945,77.251v1.637h-.2V77.251H360.2v-.17h1.282v.17Z" transform="translate(-230.144 -49.249)" fill="#f5f5f6"/>
        <path id="Path_4564" data-name="Path 4564" d="M366.021,78.888V77.236h-.009l-.5,1.652h-.156l-.508-1.652h-.006v1.652h-.181V77.082h.309l.46,1.46h.006l.453-1.46h.314v1.806Z" transform="translate(-232.989 -49.249)" fill="#f5f5f6"/>
        <path id="Path_4565" data-name="Path 4565" d="M160.251,39.078H159.01a8.226,8.226,0,0,0-.353-1.45h-1.792a7.5,7.5,0,0,0-.365,1.45h-1.167q0-.151.906-2.482a19.44,19.44,0,0,0,.906-2.568h1.466a21.37,21.37,0,0,0,.82,2.531,22.194,22.194,0,0,1,.82,2.519m-1.792-2.191a21.811,21.811,0,0,1-.663-2.164h-.062q0,.151-.686,2.164Z" transform="translate(-99.246 -21.741)" fill="#f7f8f8"/>
        <path id="Path_4566" data-name="Path 4566" d="M175.442,39.078h-.958a9.466,9.466,0,0,0-1.067-1.679,9.244,9.244,0,0,1-1.272-2.192h-.062a13.672,13.672,0,0,1,.1,1.536q0,.958.054,2.335h-.954q.058-1.2.058-2.642,0-1.416-.058-2.408h1.152a7.3,7.3,0,0,0,.958,1.641,9.635,9.635,0,0,1,1.171,2.067h.058a14.636,14.636,0,0,1-.093-1.552q0-1.051-.055-2.156h.97q-.055.962-.054,2.408t.054,2.642" transform="translate(-109.435 -21.741)" fill="#f7f8f8"/>
        <path id="Path_4567" data-name="Path 4567" d="M190.826,36.338a2.86,2.86,0,0,1-.706,1.924,2.465,2.465,0,0,1-1.978.823q-.574,0-1.583-.047.05-1.172.051-2.642,0-1.411-.051-2.409h.679q.167,0,.5-.012t.43-.012a2.615,2.615,0,0,1,2.031.7,2.415,2.415,0,0,1,.63,1.676m-1.059.167a1.87,1.87,0,0,0-.434-1.255,1.648,1.648,0,0,0-1.327-.51,4.13,4.13,0,0,0-.458.035q.039.776.039,1.621,0,.927.039,1.839a2.571,2.571,0,0,0,.5.051,1.465,1.465,0,0,0,1.235-.518,2,2,0,0,0,.4-1.262" transform="translate(-119.197 -21.7)" fill="#f7f8f8"/>
        <path id="Path_4568" data-name="Path 4568" d="M205.5,39.036H204.35a7.651,7.651,0,0,0-.69-1.7.906.906,0,0,0-.776-.322c-.15,0-.294,0-.43,0q0,1,.035,2.013H201.41q.05-1.172.051-2.642,0-1.411-.051-2.409h.671q.116,0,.487-.012t.685-.012q1.78,0,1.78,1.218a1.366,1.366,0,0,1-1.016,1.346v.058a1.21,1.21,0,0,1,.686.611,13.5,13.5,0,0,1,.8,1.841m-1.454-3.568q0-.772-.993-.772a3.376,3.376,0,0,0-.644.055q.042.6.043,1.567.213.008.361.008,1.233,0,1.233-.857" transform="translate(-128.686 -21.7)" fill="#f7f8f8"/>
        <path id="Path_4569" data-name="Path 4569" d="M219.393,36.254a2.784,2.784,0,0,1-.729,1.974,2.364,2.364,0,0,1-1.8.784,2.28,2.28,0,0,1-1.714-.72,2.533,2.533,0,0,1-.69-1.828,2.783,2.783,0,0,1,.729-1.974,2.366,2.366,0,0,1,1.8-.784,2.283,2.283,0,0,1,1.714.717,2.534,2.534,0,0,1,.69,1.831m-1.071.113a2,2,0,0,0-.415-1.315,1.279,1.279,0,0,0-1.024-.5,1.183,1.183,0,0,0-.962.508,2.027,2.027,0,0,0-.4,1.284,2,2,0,0,0,.417,1.313,1.277,1.277,0,0,0,1.022.506,1.181,1.181,0,0,0,.962-.51,2.028,2.028,0,0,0,.4-1.282" transform="translate(-137.021 -21.536)" fill="#f7f8f8"/>
        <path id="Path_4570" data-name="Path 4570" d="M232.262,39.078h-1.1q.05-1.2.051-2.642,0-1.416-.051-2.408h1.1q-.05.977-.051,2.408,0,1.463.051,2.642" transform="translate(-147.697 -21.741)" fill="#f7f8f8"/>
        <path id="Path_4571" data-name="Path 4571" d="M242.225,36.338a2.86,2.86,0,0,1-.706,1.924,2.465,2.465,0,0,1-1.978.823q-.574,0-1.583-.047.05-1.172.051-2.642,0-1.411-.051-2.409h.679q.167,0,.5-.012t.43-.012a2.615,2.615,0,0,1,2.031.7,2.415,2.415,0,0,1,.63,1.676m-1.059.167a1.87,1.87,0,0,0-.434-1.255,1.648,1.648,0,0,0-1.327-.51,4.13,4.13,0,0,0-.458.035q.039.776.039,1.621,0,.927.039,1.839a2.57,2.57,0,0,0,.5.051,1.465,1.465,0,0,0,1.235-.518,2,2,0,0,0,.4-1.262" transform="translate(-152.037 -21.7)" fill="#f7f8f8"/>
        <path id="Path_4572" data-name="Path 4572" d="M261.727,39.078h-1.241a8.2,8.2,0,0,0-.353-1.45h-1.792a7.5,7.5,0,0,0-.365,1.45h-1.167q0-.151.906-2.482a19.4,19.4,0,0,0,.905-2.568h1.466a21.458,21.458,0,0,0,.82,2.531,22.245,22.245,0,0,1,.821,2.519m-1.792-2.191a21.874,21.874,0,0,1-.664-2.164h-.062q0,.151-.686,2.164Z" transform="translate(-164.082 -21.741)" fill="#f7f8f8"/>
        <path id="Path_4573" data-name="Path 4573" d="M276.44,35.31a1.511,1.511,0,0,1-.689,1.369,3.059,3.059,0,0,1-1.689.442q-.182,0-.26-.008,0,.73.043,1.924h-1.09q.05-1.121.051-2.641,0-1.4-.051-2.409h.675q.144,0,.551-.012t.706-.012a2.22,2.22,0,0,1,1.245.333,1.128,1.128,0,0,1,.508,1.012m-1,.213q0-.83-1.1-.83a3.13,3.13,0,0,0-.582.058q.043.733.043,1.66c.065.005.14.008.225.008q1.416,0,1.416-.9" transform="translate(-174.27 -21.7)" fill="#f7f8f8"/>
        <path id="Path_4574" data-name="Path 4574" d="M289.324,35.31a1.512,1.512,0,0,1-.689,1.369,3.062,3.062,0,0,1-1.689.442q-.182,0-.26-.008,0,.73.043,1.924h-1.09q.05-1.121.051-2.641,0-1.4-.051-2.409h.675q.143,0,.551-.012t.706-.012a2.22,2.22,0,0,1,1.245.333,1.129,1.129,0,0,1,.508,1.012m-1,.213q0-.83-1.1-.83a3.13,3.13,0,0,0-.582.058q.043.733.043,1.66c.065.005.14.008.225.008q1.416,0,1.416-.9" transform="translate(-182.502 -21.7)" fill="#f7f8f8"/>
        <path id="Path_4575" data-name="Path 4575" d="M308.172,36.254a2.784,2.784,0,0,1-.729,1.974,2.364,2.364,0,0,1-1.8.784,2.278,2.278,0,0,1-1.714-.72,2.535,2.535,0,0,1-.69-1.828,2.785,2.785,0,0,1,.729-1.974,2.367,2.367,0,0,1,1.8-.784,2.283,2.283,0,0,1,1.714.717,2.534,2.534,0,0,1,.69,1.831m-1.071.113a2,2,0,0,0-.415-1.315,1.278,1.278,0,0,0-1.024-.5,1.184,1.184,0,0,0-.962.508,2.029,2.029,0,0,0-.4,1.284,2,2,0,0,0,.417,1.313,1.278,1.278,0,0,0,1.022.506,1.181,1.181,0,0,0,.962-.51,2.028,2.028,0,0,0,.4-1.282" transform="translate(-193.744 -21.536)" fill="#f7f8f8"/>
        <path id="Path_4576" data-name="Path 4576" d="M324.1,39.078h-.958A9.461,9.461,0,0,0,322.08,37.4a9.252,9.252,0,0,1-1.272-2.192h-.062a13.665,13.665,0,0,1,.1,1.536q0,.958.054,2.335h-.954q.058-1.2.058-2.642,0-1.416-.058-2.408h1.152a7.314,7.314,0,0,0,.958,1.641,9.633,9.633,0,0,1,1.171,2.067h.058a14.643,14.643,0,0,1-.093-1.552q0-1.051-.055-2.156h.97q-.055.962-.054,2.408t.054,2.642" transform="translate(-204.42 -21.741)" fill="#f7f8f8"/>
      </g>
    </g>
  </g>
</svg>
