<svg xmlns="http://www.w3.org/2000/svg" width="62.042" height="61.996" viewBox="0 0 62.042 61.996">
  <g id="Group_1863" data-name="Group 1863" transform="translate(-183.38 -362.501)">
    <path id="Path_4049" data-name="Path 4049" d="M217.618,424.494a1.053,1.053,0,0,1-.02-2.1h20.958v-29.6L214.365,374.9,190.24,392.789v29.6h16.769a1.053,1.053,0,0,1,1.074,1.007,1.052,1.052,0,0,1-1.007,1.1H184.455a1.053,1.053,0,0,1-.8-1.765,1.044,1.044,0,0,1,.731-.339h3.752V387.662a1.031,1.031,0,0,1,.277-.736,1.046,1.046,0,0,1,.731-.339h0a1.061,1.061,0,0,1,1.1,1.007v2.575l23.477-17.409c.1-.062.2-.115.2-.115l.1-.039.079-.025a1.089,1.089,0,0,1,.191-.033l.053,0,.161.007a1.518,1.518,0,0,1,.172.036l.114.043c.092.044.213.121.213.121l23.561,17.427v-2.509a1.03,1.03,0,0,1,.277-.735,1.045,1.045,0,0,1,.73-.34h0a1.06,1.06,0,0,1,1.1,1.007V422.39h3.684a1.053,1.053,0,0,1,1.074,1.007,1.053,1.053,0,0,1-1.007,1.1h-26.8Z" fill="#76777a"/>
    <path id="Path_4050" data-name="Path 4050" d="M244.048,386.809l-.029-.056a1.076,1.076,0,0,1-.3-.156L214.367,364.86,185.083,386.6a1.05,1.05,0,0,1-.625.208,1.064,1.064,0,0,1-.848-.425,1.052,1.052,0,0,1,.111-1.384l.009-.018,29.988-22.262a1.8,1.8,0,0,1,.162-.1l.155-.065.186-.044.107-.007.155,0,.136.024.195.071.135.077,30.027,22.23a1.054,1.054,0,0,1-.626,1.9Z" fill="#bf005e"/>
    <path id="Path_4051" data-name="Path 4051" d="M212.3,424.5a1.062,1.062,0,0,1-.2-.025,1.114,1.114,0,0,1-.349-.144,1.141,1.141,0,0,1-.167-.131,1.081,1.081,0,0,1-.235-.338l-.051-.139a20.965,20.965,0,0,0-2.323-5.674l-.079-.131-.131.092a4.916,4.916,0,0,1-2.8.876,6.242,6.242,0,0,1-2.738-.644c-3.112-1.483-5.138-5.274-6.369-11.925a1.06,1.06,0,0,1,1.034-1.251,1.04,1.04,0,0,1,.558.159,13.789,13.789,0,0,0,5.067,1.544c.814.141,1.742.3,2.673.516a6.222,6.222,0,0,1,4.683,4.839,1.053,1.053,0,0,1-.8,1.247,1.158,1.158,0,0,1-.231.027,1.055,1.055,0,0,1-1.028-.834,4.128,4.128,0,0,0-3.086-3.225c-.788-.182-1.534-.315-2.255-.442l-.17-.031a27.48,27.48,0,0,1-3.685-.813l-.26-.085.062.257c1.085,4.461,2.631,7.115,4.73,8.116a4.191,4.191,0,0,0,1.782.432h0a2.845,2.845,0,0,0,1.622-.486l.126-.087-.1-.123a14.82,14.82,0,0,0-3.063-2.791,1.061,1.061,0,0,1-.276-1.466,1.051,1.051,0,0,1,.868-.459,1.072,1.072,0,0,1,.6.189,17.06,17.06,0,0,1,4.067,3.913,1.133,1.133,0,0,1,.229.309,19.628,19.628,0,0,1,1.308,2.108l.222.415.056-.467A35.623,35.623,0,0,1,213.1,410.9l.03-.09-.066-.064a9.841,9.841,0,0,1,2.051-15.3c1.345-.712,2.651-1.328,3.8-1.872,3.112-1.465,5.8-2.73,7.815-4.987a1.056,1.056,0,0,1,.785-.351,1.077,1.077,0,0,1,.332.053,1.05,1.05,0,0,1,.718.9c1.055,11.044-.388,17.826-4.54,21.344a8.9,8.9,0,0,1-5.8,2.4h-.008a6.885,6.885,0,0,1-.786-.043,1.052,1.052,0,0,1-.932-1.16,1.1,1.1,0,0,1,1.076-.936l.1,0a4.862,4.862,0,0,0,.54.03,6.717,6.717,0,0,0,4.411-1.881c3.274-2.776,4.585-8.362,4.034-17.1l-.018-.282-.222.175a33.765,33.765,0,0,1-6.629,3.742l-.088.042c-1.093.516-2.33,1.1-3.583,1.761a7.422,7.422,0,0,0-3.69,5.913,7.628,7.628,0,0,0,1.377,5.2l.15.206.1-.238a27.591,27.591,0,0,1,6.8-9.47,1.047,1.047,0,0,1,.705-.272,1.052,1.052,0,0,1,.71,1.834c-6,5.464-8.914,12.973-8.919,22.955a1.428,1.428,0,0,1-.01.189l0,.037-.06.2-.111.2c-.043.058-.113.137-.113.137l-.153.129s-.118.069-.15.085l-.154.056-.095.025a1.179,1.179,0,0,1-.188.021H212.3Z" fill="#76777a"/>
  </g>
</svg>
