<svg xmlns="http://www.w3.org/2000/svg" xmlns:xlink="http://www.w3.org/1999/xlink" width="65.008" height="44.856" viewBox="0 0 65.008 44.856">
  <defs>
    <clipPath id="clip-path">
      <rect id="Rectangle_1420" data-name="Rectangle 1420" width="65.008" height="44.856" fill="none" stroke="#fff" stroke-width="0.5"/>
    </clipPath>
  </defs>
  <g id="shoe" transform="translate(0 0)">
    <g id="Group_2628" data-name="Group 2628" transform="translate(0 0)" clip-path="url(#clip-path)">
      <path id="Path_4476" data-name="Path 4476" d="M65.008,33.039a6.941,6.941,0,0,0-6.616-6.595l-9.513-.6L39.407,11.253V9.95a2.85,2.85,0,0,0-.936-2.1A3.272,3.272,0,0,0,35.175,7.2l-8.719,3.121.538-1.671A4.162,4.162,0,0,0,24.73,3.723L17.538.142A1.287,1.287,0,0,0,16.927,0a1.356,1.356,0,0,0-1.138.6L5.352,16.08l-.06-.033a1.339,1.339,0,0,0-.624-.163l-.1,0a1.3,1.3,0,0,0-1.093.661L.124,22.392A1.279,1.279,0,0,0,.71,24.086L40.882,44.7a1.391,1.391,0,0,0,.621.15l16.572,0,.233,0a6.7,6.7,0,0,0,6.7-6.454Zm-2.7,5.632a4.063,4.063,0,0,1-4.042,3.6l-.162,0-16.251.009L3.171,22.414l1.992-3.468L41.876,38.51a1.387,1.387,0,0,0,.647.161ZM15.459,6l1.948-3,6.117,3.041a1.6,1.6,0,0,1,.895,1.881l-.832,2.6ZM45.217,26.59,35.55,14.948l2.136-1.487,8.349,12.877ZM37.9,30.045l.085-.091a1.266,1.266,0,0,0-.142-1.777,1.384,1.384,0,0,0-.687-.319l-.22-.018a1.364,1.364,0,0,0-.922.359l-2.86,2.7-3.723-1.988,3.887-2.882.1-.075a1.274,1.274,0,0,0,.116-1.794,1.382,1.382,0,0,0-1.052-.457h-.006a1.562,1.562,0,0,0-.782.266l-4.82,3.571-3.137-1.668,5.157-3.982.09-.074a1.262,1.262,0,0,0,.413-.879,1.28,1.28,0,0,0-.338-.922,1.378,1.378,0,0,0-1.84-.151L21.2,24.52l-1.466-.781.168-3.757a7.986,7.986,0,0,0-3.48-7.665L12.849,9.861l1.158-1.682,9.7,5.391a1.5,1.5,0,0,0,.568.158l.15.006a1.377,1.377,0,0,0,.414-.079L36.106,9.628a.379.379,0,0,1,.084-.014c.058-.006.118-.014.094-.017a.509.509,0,0,1,.283.087.329.329,0,0,1,.159.283l.031.956L32.84,13.643a1.29,1.29,0,0,0-.551.866,1.261,1.261,0,0,0,.276,1L43.707,28.92a1.356,1.356,0,0,0,1.032.477,1.419,1.419,0,0,0,.419-.063l3.079-.957,10.005.661a4.272,4.272,0,0,1,4.093,4.035v3.005l-19.445.009-7.277-3.879ZM7.725,17.339l3.641-5.316,3.5,2.414a5.514,5.514,0,0,1,2.356,5.341l-.12,2.568Z" transform="translate(0 0)" fill="#00635b" stroke="#fff" stroke-width="0.5"/>
      <rect id="Rectangle_1415" data-name="Rectangle 1415" width="18.259" height="2.587" transform="translate(0 42.078)" fill="#00635b" stroke="#fff" stroke-width="0.5"/>
      <rect id="Rectangle_1416" data-name="Rectangle 1416" width="16.017" height="2.587" transform="translate(0 35.892)" fill="#00635b" stroke="#fff" stroke-width="0.5"/>
      <rect id="Rectangle_1417" data-name="Rectangle 1417" width="7.768" height="2.587" transform="translate(0 29.707)" fill="#00635b" stroke="#fff" stroke-width="0.5"/>
      <rect id="Rectangle_1418" data-name="Rectangle 1418" width="3.535" height="2.441" transform="translate(19.968 42.152)" fill="#21b592" stroke="#fff" stroke-width="0.5"/>
      <rect id="Rectangle_1419" data-name="Rectangle 1419" width="1.886" height="2.441" transform="translate(25.275 42.152)" fill="#21b592" stroke="#fff" stroke-width="0.5"/>
    </g>
  </g>
</svg>
