<svg xmlns="http://www.w3.org/2000/svg" xmlns:xlink="http://www.w3.org/1999/xlink" width="42.065" height="35.958" viewBox="0 0 42.065 35.958">
  <defs>
    <clipPath id="clip-path">
      <rect id="Rectangle_1448" data-name="Rectangle 1448" width="42.065" height="35.958" fill="none"/>
    </clipPath>
  </defs>
  <g id="shop" transform="translate(0 0)">
    <rect id="Rectangle_1446" data-name="Rectangle 1446" width="3.896" height="1.832" transform="translate(27.431 13.022)" fill="#21b592"/>
    <rect id="Rectangle_1447" data-name="Rectangle 1447" width="2.079" height="1.832" transform="translate(33.28 13.022)" fill="#21b592"/>
    <g id="Group_2644" data-name="Group 2644" transform="translate(0 0)">
      <g id="Group_2643" data-name="Group 2643" clip-path="url(#clip-path)">
        <path id="Path_4505" data-name="Path 4505" d="M26.646,28.669H10.662a.923.923,0,0,0-.919.92v10.6a.923.923,0,0,0,.919.92H26.647a.922.922,0,0,0,.919-.92V29.589a.923.923,0,0,0-.92-.92m-15.063,1.84H25.726v8.756H11.583Z" transform="translate(-3.458 -10.175)" fill="#00635b"/>
        <path id="Path_4506" data-name="Path 4506" d="M42.062,8.266l-.024-.125a.961.961,0,0,0-.094-.217l-3.867-6.57A2.777,2.777,0,0,0,35.74,0H7.036A2.741,2.741,0,0,0,4.809,1.183L.137,7.89l-.11.235L0,8.288v3.875a2.709,2.709,0,0,0,2.711,2.694h.252V34.988a.938.938,0,0,0,.894.97H38.163a.976.976,0,0,0,.939-.963V14.855h.266a2.711,2.711,0,0,0,2.7-2.7ZM6.319,2.222a.886.886,0,0,1,.717-.386l.2,0H35.741a.893.893,0,0,1,.753.443l3.047,5.17H2.682Zm27.622,31.9h-6.51V20.245h6.51Zm6.285-21.944a.861.861,0,0,1-.869.843H37.263v21.1H35.781V19.285A.885.885,0,0,0,34.9,18.4l-8.391,0a.922.922,0,0,0-.919.884V34.118H4.8V14.857H25.226V13.016H2.7a.871.871,0,0,1-.859-.857V9.29H40.226Z" transform="translate(0 0)" fill="#00635b"/>
      </g>
    </g>
  </g>
</svg>
