<svg xmlns="http://www.w3.org/2000/svg" xmlns:xlink="http://www.w3.org/1999/xlink" width="59.909" height="60.085" viewBox="0 0 59.909 60.085">
  <defs>
    <clipPath id="clip-path">
      <rect id="Rectangle_1426" data-name="Rectangle 1426" width="59.909" height="60.085" transform="translate(0 0)" fill="none"/>
    </clipPath>
  </defs>
  <g id="solar" transform="translate(0 0)">
    <rect id="Rectangle_1421" data-name="Rectangle 1421" width="4.345" height="2.586" transform="translate(36.723 30.875)" fill="#21b592"/>
    <rect id="Rectangle_1422" data-name="Rectangle 1422" width="2.318" height="2.586" transform="translate(43.247 30.875)" fill="#21b592"/>
    <path id="Path_4477" data-name="Path 4477" d="M28.7,51.233v6.352H19.577v2.5H40.333v-2.5H31.2V51.233Z" fill="#00635b"/>
    <g id="Group_2631" data-name="Group 2631">
      <g id="Group_2630" data-name="Group 2630" clip-path="url(#clip-path)">
        <path id="Path_4478" data-name="Path 4478" d="M59.846,46.5,53.207,25.468a1.3,1.3,0,0,0-1.247-.891H7.9l-.044,0a1.3,1.3,0,0,0-1.136.9L.063,46.5A1.3,1.3,0,0,0,1.3,48.2H58.609a1.3,1.3,0,0,0,1.237-1.7M3.093,45.6,6.927,33.462H34.573v-2.6H7.738l1.169-3.69H51.018l3.312,10.5H13.28v2.6H55.14L56.815,45.6Z" fill="#00635b"/>
        <rect id="Rectangle_1423" data-name="Rectangle 1423" width="6.268" height="2.499" transform="translate(43.342 10.597) rotate(-47.27)" fill="#00635b"/>
        <rect id="Rectangle_1424" data-name="Rectangle 1424" width="2.499" height="6.268" transform="matrix(0.735, -0.678, 0.678, 0.735, 10.479, 7.76)" fill="#00635b"/>
        <rect id="Rectangle_1425" data-name="Rectangle 1425" width="6.269" height="2.5" transform="translate(28.58 6.263) rotate(-87.708)" fill="#00635b"/>
        <path id="Path_4479" data-name="Path 4479" d="M15.629,20.758l0,.084-.114.7h2.618l.139-.407a12.345,12.345,0,0,1,23.377,0l.139.406h2.655l-.141-.7-.005-.07-.03-.1a14.991,14.991,0,0,0-28.61,0Z" fill="#00635b"/>
      </g>
    </g>
  </g>
</svg>
