<svg id="train" xmlns="http://www.w3.org/2000/svg" xmlns:xlink="http://www.w3.org/1999/xlink" width="54.582" height="73.689" viewBox="0 0 54.582 73.689">
  <defs>
    <clipPath id="clip-path">
      <rect id="Rectangle_1500" data-name="Rectangle 1500" width="54.582" height="73.689" transform="translate(0 0)" fill="none"/>
    </clipPath>
  </defs>
  <rect id="Rectangle_1495" data-name="Rectangle 1495" width="3.008" height="3.008" transform="translate(13.758 38.497)" fill="#00635b"/>
  <rect id="Rectangle_1496" data-name="Rectangle 1496" width="3.008" height="3.008" transform="translate(37.82 38.497)" fill="#00635b"/>
  <g id="Group_2671" data-name="Group 2671">
    <g id="Group_2670" data-name="Group 2670" clip-path="url(#clip-path)">
      <path id="Path_4537" data-name="Path 4537" d="M50.022,70.379H4.563L2.577,73.688,0,72.139l12.606-21.01H4.133V8.72A8.733,8.733,0,0,1,12.855,0H41.729a8.732,8.732,0,0,1,8.722,8.722V51.13H41.982l12.6,21.01-2.577,1.549ZM6.367,67.371h41.85l-3.97-6.617H10.337Zm5.775-9.625h30.3l-3.97-6.617H16.112Zm-5-9.625h40.3V31.88H7.142ZM12.857,3.005A5.721,5.721,0,0,0,7.142,8.72V28.872h40.3V8.72a5.721,5.721,0,0,0-5.715-5.715Z" fill="#00635b"/>
      <rect id="Rectangle_1497" data-name="Rectangle 1497" width="13.826" height="3.008" transform="translate(14.168 9.623)" fill="#00635b"/>
      <rect id="Rectangle_1498" data-name="Rectangle 1498" width="5.984" height="2.955" transform="translate(29.991 9.649)" fill="#21b592"/>
      <rect id="Rectangle_1499" data-name="Rectangle 1499" width="3.286" height="2.955" transform="translate(37.849 9.649)" fill="#21b592"/>
    </g>
  </g>
</svg>
