<svg xmlns="http://www.w3.org/2000/svg" width="16.228" height="26.284" viewBox="0 0 16.228 26.284">
  <path id="Path_4485" data-name="Path 4485" d="M17.74,2.994a2.767,2.767,0,1,0,2.767,2.767A2.769,2.769,0,0,0,17.74,2.994Zm0,.922A1.844,1.844,0,1,1,15.9,5.761,1.846,1.846,0,0,1,17.74,3.916Zm-.765,5.072a3.534,3.534,0,0,0-2.206.775L12.1,11.9a4.13,4.13,0,0,0-1.5,2.558l-.581,3.469a1.382,1.382,0,0,0,.747,1.465,1.516,1.516,0,0,0,2.163-1.056l.391-1.939a3.248,3.248,0,0,1,1.15-1.891l.505-.4v4.5l-1.119,3.355a3.215,3.215,0,0,1-.652,1.127L10.429,26.09a1.882,1.882,0,0,0,2.595,2.722l3.042-2.8A4.124,4.124,0,0,0,17.1,24.564l.712-1.671,4.171,5.68a1.761,1.761,0,0,0,1.414.705,1.738,1.738,0,0,0,.931-.268,1.758,1.758,0,0,0,.6-2.331L20.6,18.752a.9.9,0,0,1-.1-.408v-2.8a4.111,4.111,0,0,0,.53.123l3.47.582a1.38,1.38,0,0,0,1.464-.747,1.515,1.515,0,0,0-1.056-2.163l-1.939-.39a3.246,3.246,0,0,1-1.89-1.151l-.99-1.234a3.906,3.906,0,0,0-2.3-1.532A6.3,6.3,0,0,0,16.974,8.989Zm0,.922a5.321,5.321,0,0,1,.7.04,3.044,3.044,0,0,1,1.684,1.174l1,1.254a4.168,4.168,0,0,0,2.428,1.478l1.939.391a.593.593,0,0,1,.413.847.467.467,0,0,1-.488.249l-3.468-.581a3.2,3.2,0,0,1-.682-.192v-.619a.461.461,0,1,0-.922,0v4.393a1.833,1.833,0,0,0,.2.839l4.332,7.939a.834.834,0,0,1,.025.756,1.643,1.643,0,0,1-.2.32,2.186,2.186,0,0,1-.414.149.837.837,0,0,1-.8-.322l-3.831-5.215a.463.463,0,0,0-.024-.051l-1.8-2.506-.633-.906a3.22,3.22,0,0,1-.542-1.791V13.139a.461.461,0,0,0-.749-.359l-1.255,1.005a4.171,4.171,0,0,0-1.478,2.427l-.391,1.939a.592.592,0,0,1-.846.414.469.469,0,0,1-.249-.489l.581-3.468a3.21,3.21,0,0,1,1.166-1.989l2.671-2.136A2.57,2.57,0,0,1,16.974,9.911Zm-1.4,9.784c.034.056.06.115.1.17l1.515,2.127L16.25,24.2a3.213,3.213,0,0,1-.806,1.13l-3.034,2.793a.96.96,0,0,1-1.31-1.4L13.886,23.7a4.125,4.125,0,0,0,.844-1.455Z" transform="translate(-9.904 -2.994)" fill="#fff"/>
</svg>
